%YAML 1.1
%TAG !u! tag:unity3d.com,2011:
--- !u!1 &2755381960805015660
GameObject:
  m_ObjectHideFlags: 0
  m_CorrespondingSourceObject: {fileID: 0}
  m_PrefabInstance: {fileID: 0}
  m_PrefabAsset: {fileID: 0}
  serializedVersion: 6
  m_Component:
  - component: {fileID: 1682827559750308461}
  - component: {fileID: 1529855295839382088}
  m_Layer: 0
  m_Name: Poio
  m_TagString: Untagged
  m_Icon: {fileID: 0}
  m_NavMeshLayer: 0
  m_StaticEditorFlags: 0
  m_IsActive: 1
--- !u!4 &1682827559750308461
Transform:
  m_ObjectHideFlags: 0
  m_CorrespondingSourceObject: {fileID: 0}
  m_PrefabInstance: {fileID: 0}
  m_PrefabAsset: {fileID: 0}
  m_GameObject: {fileID: 2755381960805015660}
  serializedVersion: 2
  m_LocalRotation: {x: 0, y: 0.7071068, z: 0, w: 0.7071068}
  m_LocalPosition: {x: 10.981265, y: 14.1, z: -17.282196}
  m_LocalScale: {x: 1, y: 1, z: 1}
  m_ConstrainProportionsScale: 0
  m_Children:
  - {fileID: 6773202366158752318}
  m_Father: {fileID: 0}
  m_LocalEulerAnglesHint: {x: 0, y: 90, z: 0}
--- !u!114 &1529855295839382088
MonoBehaviour:
  m_ObjectHideFlags: 0
  m_CorrespondingSourceObject: {fileID: 0}
  m_PrefabInstance: {fileID: 0}
  m_PrefabAsset: {fileID: 0}
  m_GameObject: {fileID: 2755381960805015660}
  m_Enabled: 1
  m_EditorHideFlags: 0
  m_Script: {fileID: 11500000, guid: da2540899f23c9e40a4766c0d0b74dd9, type: 3}
  m_Name: 
  m_EditorClassIdentifier: 
--- !u!1001 &6518264297893080533
PrefabInstance:
  m_ObjectHideFlags: 0
  serializedVersion: 2
  m_Modification:
    serializedVersion: 3
    m_TransformParent: {fileID: 1682827559750308461}
    m_Modifications:
    - target: {fileID: -8679921383154817045, guid: 86fd1d33267ff8e46882a5e52c061194, type: 3}
      propertyPath: m_LocalPosition.x
      value: 0
      objectReference: {fileID: 0}
    - target: {fileID: -8679921383154817045, guid: 86fd1d33267ff8e46882a5e52c061194, type: 3}
      propertyPath: m_LocalPosition.y
      value: 0
      objectReference: {fileID: 0}
    - target: {fileID: -8679921383154817045, guid: 86fd1d33267ff8e46882a5e52c061194, type: 3}
      propertyPath: m_LocalPosition.z
      value: 0
      objectReference: {fileID: 0}
    - target: {fileID: -8679921383154817045, guid: 86fd1d33267ff8e46882a5e52c061194, type: 3}
      propertyPath: m_LocalRotation.w
      value: 1
      objectReference: {fileID: 0}
    - target: {fileID: -8679921383154817045, guid: 86fd1d33267ff8e46882a5e52c061194, type: 3}
      propertyPath: m_LocalRotation.x
      value: 0
      objectReference: {fileID: 0}
    - target: {fileID: -8679921383154817045, guid: 86fd1d33267ff8e46882a5e52c061194, type: 3}
      propertyPath: m_LocalRotation.y
      value: 0
      objectReference: {fileID: 0}
    - target: {fileID: -8679921383154817045, guid: 86fd1d33267ff8e46882a5e52c061194, type: 3}
      propertyPath: m_LocalRotation.z
      value: 0
      objectReference: {fileID: 0}
    - target: {fileID: -8679921383154817045, guid: 86fd1d33267ff8e46882a5e52c061194, type: 3}
      propertyPath: m_LocalEulerAnglesHint.x
      value: 0
      objectReference: {fileID: 0}
    - target: {fileID: -8679921383154817045, guid: 86fd1d33267ff8e46882a5e52c061194, type: 3}
      propertyPath: m_LocalEulerAnglesHint.y
      value: 0
      objectReference: {fileID: 0}
    - target: {fileID: -8679921383154817045, guid: 86fd1d33267ff8e46882a5e52c061194, type: 3}
      propertyPath: m_LocalEulerAnglesHint.z
      value: 0
      objectReference: {fileID: 0}
    - target: {fileID: 919132149155446097, guid: 86fd1d33267ff8e46882a5e52c061194, type: 3}
      propertyPath: m_Name
      value: Chiken
      objectReference: {fileID: 0}
    - target: {fileID: 8046598405272575333, guid: 86fd1d33267ff8e46882a5e52c061194, type: 3}
      propertyPath: m_LocalScale.x
      value: 20
      objectReference: {fileID: 0}
    - target: {fileID: 8046598405272575333, guid: 86fd1d33267ff8e46882a5e52c061194, type: 3}
      propertyPath: m_LocalScale.y
      value: 20
      objectReference: {fileID: 0}
    - target: {fileID: 8046598405272575333, guid: 86fd1d33267ff8e46882a5e52c061194, type: 3}
      propertyPath: m_LocalScale.z
      value: 20
      objectReference: {fileID: 0}
    - target: {fileID: 8046598405272575333, guid: 86fd1d33267ff8e46882a5e52c061194, type: 3}
      propertyPath: m_LocalPosition.x
      value: 0
      objectReference: {fileID: 0}
    - target: {fileID: 8046598405272575333, guid: 86fd1d33267ff8e46882a5e52c061194, type: 3}
      propertyPath: m_LocalPosition.y
      value: 0
      objectReference: {fileID: 0}
    - target: {fileID: 8046598405272575333, guid: 86fd1d33267ff8e46882a5e52c061194, type: 3}
      propertyPath: m_LocalPosition.z
      value: 0
      objectReference: {fileID: 0}
    m_RemovedComponents: []
    m_RemovedGameObjects:
    - {fileID: 825894089210680117, guid: 86fd1d33267ff8e46882a5e52c061194, type: 3}
    m_AddedGameObjects: []
    m_AddedComponents: []
  m_SourcePrefab: {fileID: 100100000, guid: 86fd1d33267ff8e46882a5e52c061194, type: 3}
--- !u!4 &6773202366158752318 stripped
Transform:
  m_CorrespondingSourceObject: {fileID: -8679921383154817045, guid: 86fd1d33267ff8e46882a5e52c061194, type: 3}
  m_PrefabInstance: {fileID: 6518264297893080533}
  m_PrefabAsset: {fileID: 0}
