%YAML 1.1
%TAG !u! tag:unity3d.com,2011:
--- !u!1 &4870010141513049078
GameObject:
  m_ObjectHideFlags: 0
  m_CorrespondingSourceObject: {fileID: 0}
  m_PrefabInstance: {fileID: 0}
  m_PrefabAsset: {fileID: 0}
  serializedVersion: 6
  m_Component:
  - component: {fileID: 7141927108607896883}
  m_Layer: 0
  m_Name: CountryHouse
  m_TagString: Untagged
  m_Icon: {fileID: 0}
  m_NavMeshLayer: 0
  m_StaticEditorFlags: 0
  m_IsActive: 1
--- !u!4 &7141927108607896883
Transform:
  m_ObjectHideFlags: 0
  m_CorrespondingSourceObject: {fileID: 0}
  m_PrefabInstance: {fileID: 0}
  m_PrefabAsset: {fileID: 0}
  m_GameObject: {fileID: 4870010141513049078}
  serializedVersion: 2
  m_LocalRotation: {x: 0, y: 0, z: 0, w: 1}
  m_LocalPosition: {x: 0, y: 0, z: 0}
  m_LocalScale: {x: 1, y: 1, z: 1}
  m_ConstrainProportionsScale: 0
  m_Children:
  - {fileID: 9080032501793267263}
  m_Father: {fileID: 0}
  m_LocalEulerAnglesHint: {x: 0, y: 0, z: 0}
--- !u!1001 &8757381479981316564
PrefabInstance:
  m_ObjectHideFlags: 0
  serializedVersion: 2
  m_Modification:
    serializedVersion: 3
    m_TransformParent: {fileID: 7141927108607896883}
    m_Modifications:
    - target: {fileID: -8679921383154817045, guid: 40c157d1f354202449acc218645bc884, type: 3}
      propertyPath: m_RootOrder
      value: 0
      objectReference: {fileID: 0}
    - target: {fileID: -8679921383154817045, guid: 40c157d1f354202449acc218645bc884, type: 3}
      propertyPath: m_LocalScale.x
      value: 1.5
      objectReference: {fileID: 0}
    - target: {fileID: -8679921383154817045, guid: 40c157d1f354202449acc218645bc884, type: 3}
      propertyPath: m_LocalScale.y
      value: 1.5
      objectReference: {fileID: 0}
    - target: {fileID: -8679921383154817045, guid: 40c157d1f354202449acc218645bc884, type: 3}
      propertyPath: m_LocalScale.z
      value: 1.5
      objectReference: {fileID: 0}
    - target: {fileID: -8679921383154817045, guid: 40c157d1f354202449acc218645bc884, type: 3}
      propertyPath: m_LocalPosition.x
      value: 0
      objectReference: {fileID: 0}
    - target: {fileID: -8679921383154817045, guid: 40c157d1f354202449acc218645bc884, type: 3}
      propertyPath: m_LocalPosition.y
      value: 0
      objectReference: {fileID: 0}
    - target: {fileID: -8679921383154817045, guid: 40c157d1f354202449acc218645bc884, type: 3}
      propertyPath: m_LocalPosition.z
      value: 0
      objectReference: {fileID: 0}
    - target: {fileID: -8679921383154817045, guid: 40c157d1f354202449acc218645bc884, type: 3}
      propertyPath: m_LocalRotation.w
      value: 1
      objectReference: {fileID: 0}
    - target: {fileID: -8679921383154817045, guid: 40c157d1f354202449acc218645bc884, type: 3}
      propertyPath: m_LocalRotation.x
      value: -0
      objectReference: {fileID: 0}
    - target: {fileID: -8679921383154817045, guid: 40c157d1f354202449acc218645bc884, type: 3}
      propertyPath: m_LocalRotation.y
      value: -0
      objectReference: {fileID: 0}
    - target: {fileID: -8679921383154817045, guid: 40c157d1f354202449acc218645bc884, type: 3}
      propertyPath: m_LocalRotation.z
      value: -0
      objectReference: {fileID: 0}
    - target: {fileID: -8679921383154817045, guid: 40c157d1f354202449acc218645bc884, type: 3}
      propertyPath: m_LocalEulerAnglesHint.x
      value: 0
      objectReference: {fileID: 0}
    - target: {fileID: -8679921383154817045, guid: 40c157d1f354202449acc218645bc884, type: 3}
      propertyPath: m_LocalEulerAnglesHint.y
      value: 0
      objectReference: {fileID: 0}
    - target: {fileID: -8679921383154817045, guid: 40c157d1f354202449acc218645bc884, type: 3}
      propertyPath: m_LocalEulerAnglesHint.z
      value: 0
      objectReference: {fileID: 0}
    - target: {fileID: -8378904336175265777, guid: 40c157d1f354202449acc218645bc884, type: 3}
      propertyPath: m_Materials.Array.data[0]
      value: 
      objectReference: {fileID: 2100000, guid: 97578c8489c97af4d98c4a94b11e9907, type: 2}
    - target: {fileID: -7429016121056633293, guid: 40c157d1f354202449acc218645bc884, type: 3}
      propertyPath: m_Materials.Array.data[0]
      value: 
      objectReference: {fileID: 2100000, guid: 97578c8489c97af4d98c4a94b11e9907, type: 2}
    - target: {fileID: -1991308983062541612, guid: 40c157d1f354202449acc218645bc884, type: 3}
      propertyPath: m_Materials.Array.data[0]
      value: 
      objectReference: {fileID: 2100000, guid: 97578c8489c97af4d98c4a94b11e9907, type: 2}
    - target: {fileID: 919132149155446097, guid: 40c157d1f354202449acc218645bc884, type: 3}
      propertyPath: m_Name
      value: country_house_01
      objectReference: {fileID: 0}
    - target: {fileID: 6149037342779812377, guid: 40c157d1f354202449acc218645bc884, type: 3}
      propertyPath: m_Materials.Array.data[0]
      value: 
      objectReference: {fileID: 2100000, guid: 97578c8489c97af4d98c4a94b11e9907, type: 2}
    m_RemovedComponents: []
    m_RemovedGameObjects: []
    m_AddedGameObjects: []
    m_AddedComponents:
    - targetCorrespondingSourceObject: {fileID: 4830737723385965932, guid: 40c157d1f354202449acc218645bc884, type: 3}
      insertIndex: -1
      addedObject: {fileID: 1971729377797834507}
    - targetCorrespondingSourceObject: {fileID: -4287893037368246789, guid: 40c157d1f354202449acc218645bc884, type: 3}
      insertIndex: -1
      addedObject: {fileID: 7318547679214062207}
    - targetCorrespondingSourceObject: {fileID: -1646166146209209787, guid: 40c157d1f354202449acc218645bc884, type: 3}
      insertIndex: -1
      addedObject: {fileID: 4583389967097290691}
  m_SourcePrefab: {fileID: 100100000, guid: 40c157d1f354202449acc218645bc884, type: 3}
--- !u!1 &1202422145845812113 stripped
GameObject:
  m_CorrespondingSourceObject: {fileID: -1646166146209209787, guid: 40c157d1f354202449acc218645bc884, type: 3}
  m_PrefabInstance: {fileID: 8757381479981316564}
  m_PrefabAsset: {fileID: 0}
--- !u!64 &4583389967097290691
MeshCollider:
  m_ObjectHideFlags: 0
  m_CorrespondingSourceObject: {fileID: 0}
  m_PrefabInstance: {fileID: 0}
  m_PrefabAsset: {fileID: 0}
  m_GameObject: {fileID: 1202422145845812113}
  m_Material: {fileID: 0}
  m_IncludeLayers:
    serializedVersion: 2
    m_Bits: 0
  m_ExcludeLayers:
    serializedVersion: 2
    m_Bits: 0
  m_LayerOverridePriority: 0
  m_IsTrigger: 0
  m_ProvidesContacts: 0
  m_Enabled: 1
  serializedVersion: 5
  m_Convex: 0
  m_CookingOptions: 30
  m_Mesh: {fileID: 48537976220875855, guid: 40c157d1f354202449acc218645bc884, type: 3}
--- !u!1 &4216005128670483640 stripped
GameObject:
  m_CorrespondingSourceObject: {fileID: 4830737723385965932, guid: 40c157d1f354202449acc218645bc884, type: 3}
  m_PrefabInstance: {fileID: 8757381479981316564}
  m_PrefabAsset: {fileID: 0}
--- !u!64 &1971729377797834507
MeshCollider:
  m_ObjectHideFlags: 0
  m_CorrespondingSourceObject: {fileID: 0}
  m_PrefabInstance: {fileID: 0}
  m_PrefabAsset: {fileID: 0}
  m_GameObject: {fileID: 4216005128670483640}
  m_Material: {fileID: 0}
  m_IncludeLayers:
    serializedVersion: 2
    m_Bits: 0
  m_ExcludeLayers:
    serializedVersion: 2
    m_Bits: 0
  m_LayerOverridePriority: 0
  m_IsTrigger: 0
  m_ProvidesContacts: 0
  m_Enabled: 1
  serializedVersion: 5
  m_Convex: 0
  m_CookingOptions: 30
  m_Mesh: {fileID: 3997015080294572170, guid: 40c157d1f354202449acc218645bc884, type: 3}
--- !u!1 &4464791327302059055 stripped
GameObject:
  m_CorrespondingSourceObject: {fileID: -4287893037368246789, guid: 40c157d1f354202449acc218645bc884, type: 3}
  m_PrefabInstance: {fileID: 8757381479981316564}
  m_PrefabAsset: {fileID: 0}
--- !u!64 &7318547679214062207
MeshCollider:
  m_ObjectHideFlags: 0
  m_CorrespondingSourceObject: {fileID: 0}
  m_PrefabInstance: {fileID: 0}
  m_PrefabAsset: {fileID: 0}
  m_GameObject: {fileID: 4464791327302059055}
  m_Material: {fileID: 0}
  m_IncludeLayers:
    serializedVersion: 2
    m_Bits: 0
  m_ExcludeLayers:
    serializedVersion: 2
    m_Bits: 0
  m_LayerOverridePriority: 0
  m_IsTrigger: 0
  m_ProvidesContacts: 0
  m_Enabled: 1
  serializedVersion: 5
  m_Convex: 0
  m_CookingOptions: 30
  m_Mesh: {fileID: -2446500526114189382, guid: 40c157d1f354202449acc218645bc884, type: 3}
--- !u!4 &9080032501793267263 stripped
Transform:
  m_CorrespondingSourceObject: {fileID: -8679921383154817045, guid: 40c157d1f354202449acc218645bc884, type: 3}
  m_PrefabInstance: {fileID: 8757381479981316564}
  m_PrefabAsset: {fileID: 0}
